{
  "extends": [
    "config:base",
    ":masterIssue",
    ":separateMultipleMajorReleases"
  ],
  "commitMessagePrefix": "Renovate:",
  "commitMessageAction": "Update",
  "separateMinorPatch": false,
  "prConcurrentLimit": 0,
  "prHourlyLimit": 0,
  "automerge": true,
  "gitLabAutomerge": true,
  "regexManagers": [
    {
      "fileMatch": [
        "build.gradle$"
      ],
      "matchStrings": [
        "jacoco {\\s+toolVersion = '(?<currentValue>[\\d.]*?)'"
      ],
      "datasourceTemplate": "maven",
      "depNameTemplate": "org.jacoco:jacoco"
    }
  ],
  "packageRules": [
    {
      "matchPackageNames": [
        "openjdk"
      ],
      "enabled": false
    },
    {
      "packagePatterns": [
        "^io.dropwizard.metrics:*"
      ],
      "groupName": [
        "io.dropwizard.metrics"
      ]
    },
    {
      "packagePatterns": [
        "^org.jetbrains.kotlin.*"
      ],
      "groupName": [
        "org.jetbrains.kotlin"
      ]
    },
    {
      "packagePatterns": [
        "^net.serenity-bdd.*:*"
      ],
      "groupName": [
        "net.serenity-bdd"
      ]
    }
  ]
}
